%YAML 1.1
%TAG !u! tag:unity3d.com,2011:
--- !u!1045 &1
EditorBuildSettings:
  m_ObjectHideFlags: 0
  serializedVersion: 2
  m_Scenes:
  - enabled: 1
    path: Assets/Scenes/Persistent.unity
    guid: 08263828f4dc24c54916b07a4455ea67
  - enabled: 1
    path: Assets/Scenes/LandingScreen.unity
    guid: 481b5b36d30824e0db4d731e46936d8b
  - enabled: 1
    path: Assets/Scenes/LoginScreen.unity
    guid: 880e829c584aa41b99370fd50615c6c2
  - enabled: 1
    path: Assets/Scenes/ARScene.unity
    guid: a2304417f769241dd90415eb06ff73ca
  m_configObjects:
    com.unity.xr.management.loader_settings: {fileID: 11400000, guid: ae63ca33b772c4763bcc6fefe4068d13,
      type: 2}
